[GER] Tutorial • rOstluft
…
Der Zugriff auf die Daten erfügt dann über ein store Objekt, welches auf folgende Art initialisiert wird:

store <- storage_s3_rds("tutorial", format = format_rolf(), bucket = "rostluft", prefix = "aqmet")

TODO: Beschreibung was die verschiedenen Argument bedeuten

Dieses store Objekt verfügt über verschiedene Methoden, zur Abfrage von Daten sind jedoch nur zwei von Bedeutung:

$get_content(): holt eine Übersicht über alle im store enthaltene Daten

$get(): Aktuelle Datenabfrage. Welche Daten geholt werden, muss über Funktionsargumente definiert werden

content <- store$get_content()
content
#> # A tibble: 146,220 x 6
#>     year interval site            parameter unit      n
#>    <dbl> <fct>    <fct>           <fct>     <fct> <int>
#>  1  2004 h8gl     Rap_Tüchelweier CO        mg/m3    15
#>  2  2004 h8gl     Rap_Tüchelweier O3        µg/m3    15
#>  3  2004 h1       Rap_Tüchelweier CO        mg/m3    20
#>  4  2004 h1       Rap_Tüchelweier Hr        %Hr      19
#>  5  2004 h1       Rap_Tüchelweier NO2       µg/m3    20
#>  6  2004 h1       Rap_Tüchelweier NO        µg/m3    20
#>  7  2004 h1       Rap_Tüchelweier NOx       ppb      20
#>  8  2004 h1       Rap_Tüchelweier O3        µg/m3    20
#>  9  2004 h1       Rap_Tüchelweier T         °C       19
#> 10  2004 h1       Rap_Tüchelweier WD        °        18
#> # ... with 146,210 more rows
…
Eine Datenabfrage holt immer die Daten von einem komplettem Jahr einer Station für einen bestimmten Mittelungszeitraum:

store$get(site = "Zch_Schimmelstrasse", year = 2014, interval = "min30")
#> # A tibble: 243,875 x 6
#>    starttime           site               parameter interval unit     value
#>    <dttm>              <fct>              <fct>     <fct>    <fct>    <dbl>
#>  1 2014-01-01 00:00:00 Zch_Schimmelstras~ CO        min30    ppm    6.37e-1
#>  2 2014-01-01 00:00:00 Zch_Schimmelstras~ Hr        min30    %Hr    8.74e+1
#>  3 2014-01-01 00:00:00 Zch_Schimmelstras~ NO2       min30    ppb    2.81e+1
#>  4 2014-01-01 00:00:00 Zch_Schimmelstras~ NO        min30    ppb    6.15e+1
#>  5 2014-01-01 00:00:00 Zch_Schimmelstras~ NOx       min30    ppb    8.96e+1
#>  6 2014-01-01 00:00:00 Zch_Schimmelstras~ O3        min30    ppb    7.98e-1
#>  7 2014-01-01 00:00:00 Zch_Schimmelstras~ PM10      min30    µg/m3  1.02e+2
#>  8 2014-01-01 00:00:00 Zch_Schimmelstras~ PN        min30    1/cm3  2.60e+4
#>  9 2014-01-01 00:00:00 Zch_Schimmelstras~ RainDur   min30    min    0.     
#> 10 2014-01-01 00:00:00 Zch_Schimmelstras~ SO2       min30    ppb    2.12e+0
#> # ... with 243,865 more rows

Jedes der Argumente kann auch ein Vector sein mit mehreren Werte. Es wird dann Kombination aller Möglichkeiten abgefragt.

sites <- c("Zch_Schimmelstrasse", "Zch_Rosengartenstrasse", "Zch_Stampfenbachstrasse")
data <- store$get(site = sites, year = 2014:2015, interval = "min30")
data
#> # A tibble: 1,287,367 x 6
#>    starttime           site               parameter interval unit     value
#>    <dttm>              <fct>              <fct>     <fct>    <fct>    <dbl>
#>  1 2014-01-01 00:00:00 Zch_Rosengartenst~ Hr        min30    %Hr     92.7  
#>  2 2014-01-01 00:00:00 Zch_Rosengartenst~ NO2       min30    ppb     18.6  
#>  3 2014-01-01 00:00:00 Zch_Rosengartenst~ NO        min30    ppb     42.8  
#>  4 2014-01-01 00:00:00 Zch_Rosengartenst~ NOx       min30    ppb     61.4  
#>  5 2014-01-01 00:00:00 Zch_Rosengartenst~ O3        min30    ppb      0.776
#>  6 2014-01-01 00:00:00 Zch_Rosengartenst~ PM10      min30    µg/m3  298.   
#>  7 2014-01-01 00:00:00 Zch_Rosengartenst~ RainDur   min30    min      0    
#>  8 2014-01-01 00:00:00 Zch_Rosengartenst~ T         min30    °C      -2.18 
#>  9 2014-01-01 00:00:00 Zch_Rosengartenst~ p         min30    hPa    966.   
#> 10 2014-01-01 00:30:00 Zch_Rosengartenst~ Hr        min30    %Hr     89.1  
#> # ... with 1,287,357 more rows
…
Die letzte Funktionalität von $get() ist die Filterung der Daten vor der Rückgabe. Mit dem Argument “filter” als dplyr::filter() kompatibler Ausdruck:

store$get(site = sites, year = 2014, interval = "min30", filter = parameter == "PM10")
#> # A tibble: 51,319 x 6
#>    starttime           site                  parameter interval unit  value
#>    <dttm>              <fct>                 <fct>     <fct>    <fct> <dbl>
#>  1 2014-01-01 00:00:00 Zch_Rosengartenstras~ PM10      min30    µg/m3 298. 
#>  2 2014-01-01 00:30:00 Zch_Rosengartenstras~ PM10      min30    µg/m3 557. 
#>  3 2014-01-01 01:00:00 Zch_Rosengartenstras~ PM10      min30    µg/m3 308. 
#>  4 2014-01-01 01:30:00 Zch_Rosengartenstras~ PM10      min30    µg/m3 169. 
#>  5 2014-01-01 02:00:00 Zch_Rosengartenstras~ PM10      min30    µg/m3 128. 
#>  6 2014-01-01 02:30:00 Zch_Rosengartenstras~ PM10      min30    µg/m3  82.9
#>  7 2014-01-01 03:00:00 Zch_Rosengartenstras~ PM10      min30    µg/m3  38.3
#>  8 2014-01-01 03:30:00 Zch_Rosengartenstras~ PM10      min30    µg/m3  32.6
#>  9 2014-01-01 04:00:00 Zch_Rosengartenstras~ PM10      min30    µg/m3  32.4
#> 10 2014-01-01 04:30:00 Zch_Rosengartenstras~ PM10      min30    µg/m3  31.7
#> # ... with 51,309 more rows

Lokales Arbeiten mit den AWS S3 Daten

Ein Nachteil des S3 Storage ist, dass bei jeder Datenabfrage eine Internetverbindung zur Überprüfung ob aktualisierte Daten verfügbar sind vorhanden sein muss. Selbst wenn die Daten bereits lokal gespeichert sind. Nicht nur wird eine Internetverbindung benötigt, die Überprüfung braucht auch eine kurze Zeit. Hat man alle notwendigen Daten bereits herunter geladen, kann man jedoch mit einem lokalen Store arbeiten. Praktischerweise hat der S3 Store eine Funktion, welche einen lokalen Store zurückgibt.

lokal <- store$get_local_storage()

Dieser verfügt über die gleichen Funktionalität wie der S3 Store:

lokal$get_content()
#> # A tibble: 146,220 x 6
#>     year interval site            parameter unit      n
#>    <dbl> <fct>    <fct>           <fct>     <fct> <int>
#>  1  2004 h8gl     Rap_Tüchelweier CO        mg/m3    15
#>  2  2004 h8gl     Rap_Tüchelweier O3        µg/m3    15
#>  3  2004 h1       Rap_Tüchelweier CO        mg/m3    20
#>  4  2004 h1       Rap_Tüchelweier Hr        %Hr      19
#>  5  2004 h1       Rap_Tüchelweier NO2       µg/m3    20
#>  6  2004 h1       Rap_Tüchelweier NO        µg/m3    20
#>  7  2004 h1       Rap_Tüchelweier NOx       ppb      20
#>  8  2004 h1       Rap_Tüchelweier O3        µg/m3    20
#>  9  2004 h1       Rap_Tüchelweier T         °C       19
#> 10  2004 h1       Rap_Tüchelweier WD        °        18
#> # ... with 146,210 more rows

lokal$get(site = sites, year = 2014, interval = "min30", filter = parameter == "PM10")
#> # A tibble: 51,319 x 6
#>    starttime           site                  parameter interval unit  value
#>    <dttm>              <fct>                 <fct>     <fct>    <fct> <dbl>
#>  1 2014-01-01 00:00:00 Zch_Rosengartenstras~ PM10      min30    µg/m3 298. 
#>  2 2014-01-01 00:30:00 Zch_Rosengartenstras~ PM10      min30    µg/m3 557. 
#>  3 2014-01-01 01:00:00 Zch_Rosengartenstras~ PM10      min30    µg/m3 308. 
#>  4 2014-01-01 01:30:00 Zch_Rosengartenstras~ PM10      min30    µg/m3 169. 
#>  5 2014-01-01 02:00:00 Zch_Rosengartenstras~ PM10      min30    µg/m3 128. 
#>  6 2014-01-01 02:30:00 Zch_Rosengartenstras~ PM10      min30    µg/m3  82.9
#>  7 2014-01-01 03:00:00 Zch_Rosengartenstras~ PM10      min30    µg/m3  38.3
#>  8 2014-01-01 03:30:00 Zch_Rosengartenstras~ PM10      min30    µg/m3  32.6
#>  9 2014-01-01 04:00:00 Zch_Rosengartenstras~ PM10      min30    µg/m3  32.4
#> 10 2014-01-01 04:30:00 Zch_Rosengartenstras~ PM10      min30    µg/m3  31.7
#> # ... with 51,309 more rows
…
Wie gewohnt kann erhält man mit $get_content() eine Übersicht und die Daten mit $get():

my_store$get_content()
#> # A tibble: 126 x 6
#>     year interval site                   parameter unit      n
#>    <dbl> <fct>    <fct>                  <fct>     <fct> <int>
#>  1  2014 min30    Zch_Rosengartenstrasse NO        µg/m3 17415
#>  2  2014 min30    Zch_Rosengartenstrasse NO2       µg/m3 17415
#>  3  2014 min30    Zch_Rosengartenstrasse NOx       ppb   17415
#>  4  2014 min30    Zch_Rosengartenstrasse O3        µg/m3 17366
#>  5  2014 min30    Zch_Rosengartenstrasse PM10      µg/m3 16788
#>  6  2014 min30    Zch_Rosengartenstrasse Hr        %Hr   17517
#>  7  2014 min30    Zch_Rosengartenstrasse p         hPa   17519
#>  8  2014 min30    Zch_Rosengartenstrasse RainDur   min   17519
#>  9  2014 min30    Zch_Rosengartenstrasse T         °C    17517
#> 10  2013 min30    Zch_Rosengartenstrasse NO        µg/m3  4269
#> # ... with 116 more rows

my_store$get(site = "Zch_Stampfenbachstrasse", interval = c("d1", "h1"), year = 2013)  %>% 
  dplyr::arrange(.data$starttime, .data$parameter)
#> # A tibble: 16,286 x 6
#>    starttime           site               parameter   interval unit   value
#>    <dttm>              <fct>              <fct>       <fct>    <fct>  <dbl>
#>  1 2013-01-01 00:00:00 Zch_Stampfenbachs~ CO          d1       mg/m3  0.381
#>  2 2013-01-01 00:00:00 Zch_Stampfenbachs~ CO          d1       ppm    0.327
#>  3 2013-01-01 00:00:00 Zch_Stampfenbachs~ CO          h1       mg/m3  0.805
#>  4 2013-01-01 00:00:00 Zch_Stampfenbachs~ CO          h1       ppm    0.692
#>  5 2013-01-01 00:00:00 Zch_Stampfenbachs~ CO_max_min~ d1       mg/m3  0.966
#>  6 2013-01-01 00:00:00 Zch_Stampfenbachs~ CO_min_min~ d1       mg/m3  0.190
#>  7 2013-01-01 00:00:00 Zch_Stampfenbachs~ CO_nb_min30 d1       1     48    
#>  8 2013-01-01 00:00:00 Zch_Stampfenbachs~ Hr          d1       %Hr   76.0  
#>  9 2013-01-01 00:00:00 Zch_Stampfenbachs~ Hr          h1       %Hr   82.9  
#> 10 2013-01-01 00:00:00 Zch_Stampfenbachs~ Hr_max_min~ d1       %Hr   88.4  
#> # ... with 16,276 more rows
…
Mit dem dplyr::select am Ende ist man sicher nur die Spalten in der Rückgabe zu haben die man haben will und es ist einfach noch Spalten umzubenennen und die Reihenfolge zu ändern.

Zusammenfügen von Daten im rolf Format

Die Verwendung von Factoren im rolf Format hat seine Vor- und Nachteile. Der Hauptvorteil liegt bei schnelleren Lese- und Schreiboperation, der grösste Nachteil beim Zusammenfügen der Daten. dplyr::bind_rows wird die Factoren in Characters umwandeln, wenn unterschiedliche Levels in den Daten vorhanden sind. Die Funktion bind_rows_with_factor_columns() führt das Zusammenfügen korrekt aus. Sie unterstützt ausserdem Quasiquotation von rlang2. Somit kann auch eine grosse Liste von tibbles im rolf Format komfortable aneinander gefügt werden:

df1 <- read_airmo_csv(fs::path(examples_path, "Zch_Stampfenbachstrasse_h1_2013_Jan.csv"))
df2 <- read_airmo_csv(fs::path(examples_path, "Zch_Stampfenbachstrasse_d1_2013_Jan.csv"))
df_comb <- bind_rows_with_factor_columns(df1, df2)
df_comb %>% dplyr::arrange(.data$starttime, .data$parameter)
#> # A tibble: 16,286 x 6
#>    starttime           site                 parameter interval unit   value
#>    <dttm>              <fct>                <fct>     <fct>    <fct>  <dbl>
#>  1 2013-01-01 00:00:00 Zch_Stampfenbachstr~ CO        h1       mg/m3  0.805
#>  2 2013-01-01 00:00:00 Zch_Stampfenbachstr~ CO        h1       ppm    0.692
#>  3 2013-01-01 00:00:00 Zch_Stampfenbachstr~ CO        d1       mg/m3  0.381
#>  4 2013-01-01 00:00:00 Zch_Stampfenbachstr~ CO        d1       ppm    0.327
#>  5 2013-01-01 00:00:00 Zch_Stampfenbachstr~ Hr        h1       %Hr   82.9  
#>  6 2013-01-01 00:00:00 Zch_Stampfenbachstr~ Hr        d1       %Hr   76.0  
#>  7 2013-01-01 00:00:00 Zch_Stampfenbachstr~ NO        h1       µg/m3 80.5  
#>  8 2013-01-01 00:00:00 Zch_Stampfenbachstr~ NO        h1       ppb   64.6  
#>  9 2013-01-01 00:00:00 Zch_Stampfenbachstr~ NO        d1       µg/m3 17.6  
#> 10 2013-01-01 00:00:00 Zch_Stampfenbachstr~ NO        d1       ppb   14.1  
#> # ... with 16,276 more rows

# liste mit 20+ tibbles
df_list <- read_smn_multiple(fs::path(examples_path, "smn_multi.txt"), as_list = TRUE)
length(df_list)
#> [1] 26
df_comb <- bind_rows_with_factor_columns(!!!df_list)
df_comb %>% dplyr::arrange(.data$starttime, .data$parameter)
#> # A tibble: 1,070 x 6
#>    starttime           site  parameter interval unit  value
#>    <dttm>              <fct> <fct>     <fct>    <fct> <dbl>
#>  1 2010-01-01 00:00:00 KLO   dkl010b0  h1       <NA>  319  
#>  2 2010-01-01 00:00:00 KLO   fkl010b0  h1       <NA>    1.5
#>  3 2010-01-01 00:00:00 KLO   gre000b0  h1       <NA>    0  
#>  4 2010-01-01 00:00:00 KLO   tre200b0  h1       <NA>    2.3
#>  5 2010-01-01 00:00:00 UEB   dk1towb0  h1       <NA>  249  
#>  6 2010-01-01 00:00:00 UEB   fk1towb0  h1       <NA>    1.7
#>  7 2010-01-01 00:00:00 UEB   ta1towb0  h1       <NA>    3.7
#>  8 2010-01-01 01:00:00 KLO   dkl010b0  h1       <NA>  317  
#>  9 2010-01-01 01:00:00 KLO   fkl010b0  h1       <NA>    1.7
#> 10 2010-01-01 01:00:00 KLO   gre000b0  h1       <NA>    0  
#> # ... with 1,060 more rows

bind_rows_with_factor_columns() entfernt jedoch keine Duplikate aus den Daten. Es hängt die Daten einfach aneinander. Möchte man Duplikate entfernen, bzw. Daten aktualisieren mit neueren Daten muss man die Funktion $merge() des Format Objekts benützen. Dieses wurde beim Erzeugen des Store direkt initialisiert und ist als Feld $format verfügbar. Alternativ kann ein seperates Format Objekt erzeugt werden. Die Daten im ersten Datenframe werden über Daten im zweiten Datenframe priorisiert.

# kopiere Daten und setze einige NA -> Resultat sollte NA enthalten
df1 <- df2
df1$value[1:150] <- NA  

df_comb <- store$format$merge(df1, df2)
df_comb %>% dplyr::arrange(.data$starttime, .data$parameter)
#> # A tibble: 2,170 x 6
#>    starttime           site                parameter   interval unit  value
#>    <dttm>              <fct>               <fct>       <fct>    <fct> <dbl>
#>  1 2013-01-01 00:00:00 Zch_Stampfenbachst~ CO          d1       mg/m3  NA  
#>  2 2013-01-01 00:00:00 Zch_Stampfenbachst~ CO          d1       ppm    NA  
#>  3 2013-01-01 00:00:00 Zch_Stampfenbachst~ CO_max_min~ d1       mg/m3  NA  
#>  4 2013-01-01 00:00:00 Zch_Stampfenbachst~ CO_min_min~ d1       mg/m3  NA  
#>  5 2013-01-01 00:00:00 Zch_Stampfenbachst~ CO_nb_min30 d1       1      NA  
#>  6 2013-01-01 00:00:00 Zch_Stampfenbachst~ Hr          d1       %Hr    76.0
#>  7 2013-01-01 00:00:00 Zch_Stampfenbachst~ Hr_max_min~ d1       %Hr    88.4
#>  8 2013-01-01 00:00:00 Zch_Stampfenbachst~ Hr_min_min~ d1       %Hr    50.3
#>  9 2013-01-01 00:00:00 Zch_Stampfenbachst~ Hr_nb_min30 d1       1      48  
#> 10 2013-01-01 00:00:00 Zch_Stampfenbachst~ NO          d1       µg/m3  17.6
#> # ... with 2,160 more rows

rolf <- format_rolf()
df_comb <- rolf$merge(df1, df2)
df_comb %>% dplyr::arrange(.data$starttime, .data$parameter)
#> # A tibble: 2,170 x 6
#>    starttime           site                parameter   interval unit  value
#>    <dttm>              <fct>               <fct>       <fct>    <fct> <dbl>
#>  1 2013-01-01 00:00:00 Zch_Stampfenbachst~ CO          d1       mg/m3  NA  
#>  2 2013-01-01 00:00:00 Zch_Stampfenbachst~ CO          d1       ppm    NA  
#>  3 2013-01-01 00:00:00 Zch_Stampfenbachst~ CO_max_min~ d1       mg/m3  NA  
#>  4 2013-01-01 00:00:00 Zch_Stampfenbachst~ CO_min_min~ d1       mg/m3  NA  
#>  5 2013-01-01 00:00:00 Zch_Stampfenbachst~ CO_nb_min30 d1       1      NA  
#>  6 2013-01-01 00:00:00 Zch_Stampfenbachst~ Hr          d1       %Hr    76.0
#>  7 2013-01-01 00:00:00 Zch_Stampfenbachst~ Hr_max_min~ d1       %Hr    88.4
#>  8 2013-01-01 00:00:00 Zch_Stampfenbachst~ Hr_min_min~ d1       %Hr    50.3
#>  9 2013-01-01 00:00:00 Zch_Stampfenbachst~ Hr_nb_min30 d1       1      48  
#> 10 2013-01-01 00:00:00 Zch_Stampfenbachst~ NO          d1       µg/m3  17.6
#> # ... with 2,160 more rows

Die $merge() Funktion unterstützt nur 2 Argumente. Muss eine Liste von tibbles gemerget werden muss man purrr::reduce() benützen. Mit Hilfe des Argument .dir kann man die Priosierung setzen. Mit “forward”" haben die Daten die zuerst in der Liste auftauchen Priorität, mit “backward” die Letzten.

df_comb <- purrr::reduce(df_list, rolf$merge, .dir = "forward")
df_comb %>% dplyr::arrange(.data$starttime, .data$parameter)
#> # A tibble: 1,070 x 6
#>    starttime           site  parameter interval unit  value
#>    <dttm>              <fct> <fct>     <fct>    <fct> <dbl>
#>  1 2010-01-01 00:00:00 KLO   dkl010b0  h1       <NA>  319  
#>  2 2010-01-01 00:00:00 KLO   fkl010b0  h1       <NA>    1.5
#>  3 2010-01-01 00:00:00 KLO   gre000b0  h1       <NA>    0  
#>  4 2010-01-01 00:00:00 KLO   tre200b0  h1       <NA>    2.3
#>  5 2010-01-01 00:00:00 UEB   dk1towb0  h1       <NA>  249  
#>  6 2010-01-01 00:00:00 UEB   fk1towb0  h1       <NA>    1.7
#>  7 2010-01-01 00:00:00 UEB   ta1towb0  h1       <NA>    3.7
#>  8 2010-01-01 01:00:00 KLO   dkl010b0  h1       <NA>  317  
#>  9 2010-01-01 01:00:00 KLO   fkl010b0  h1       <NA>    1.7
#> 10 2010-01-01 01:00:00 KLO   gre000b0  h1       <NA>    0  
#> # ... with 1,060 more rows
…
Die meta_apply() benützt die Metadaten als “Lookup Table”. Es wird folgende Operation ausgeführt:

meta_apply(data, meta, data_src, data_dest, meta_key, meta_val) 

data$data_dest = meta[meta$meta_key == data$data_src]$meta_val

Wobei die jeweiligen Spalten jeweils als Argument übergeben werden. Die Funktion verfügt über verschiende Modi um mit fehlenden Einträgen umzugehen. Im folgenden Beispiel werden bei den MeteoSchweiz Daten die “unit” Spalte basierend auf den “parameter” Spalte ausgefüllt. Da die Parameter noch die MeteoSchweiz Bezeichnungen haben müssen wir als Meta Key die Spalte “parameter_original” und “unit” als Value verwenden. Es werden die Daten aus rOstluft.data verwendet. In diesen fehlt in den Metadaten der MeteoSchweiz Parameter rre150z0 (Niederschlag). Der Default Modus “strict” stoppt das Script:

meteoschweiz <- readRDS(fs::path(examples_path, "meta_smn.rds"))
data <- read_smn(fs::path(examples_path, "smn.txt"), na.rm = FALSE)
data <- dplyr::arrange(data, .data$starttime, .data$parameter) 
data
#> # A tibble: 60 x 6
#>    starttime           site  parameter interval unit  value
#>    <dttm>              <fct> <fct>     <fct>    <fct> <dbl>
#>  1 2018-01-01 00:50:00 CHU   dkl010z0  min10    <NA>  216  
#>  2 2018-01-01 00:50:00 CHU   fkl010z0  min10    <NA>    1.7
#>  3 2018-01-01 00:50:00 CHU   fkl010z1  min10    <NA>    3  
#>  4 2018-01-01 00:50:00 CHU   gre000z0  min10    <NA>    5  
#>  5 2018-01-01 00:50:00 CHU   hto000s0  min10    <NA>   NA  
#>  6 2018-01-01 00:50:00 CHU   prestas0  min10    <NA>  946. 
#>  7 2018-01-01 00:50:00 CHU   rre150z0  min10    <NA>    0  
#>  8 2018-01-01 00:50:00 CHU   sre000z0  min10    <NA>    0  
#>  9 2018-01-01 00:50:00 CHU   tre200s0  min10    <NA>    2.3
#> 10 2018-01-01 00:50:00 CHU   ure200s0  min10    <NA>   82.7
#> # ... with 50 more rows
…
