[GER] AWS S3 • rOstluft
…
Für den Zugriff auf die Daten wird die Funktion $get() verwendet. Die Daten sind nach Station (site), Mittelungszeitraum (interval) und Jahre (year) aufgeteilt. Diese drei Parameter müssen immer als Argument an die Funktion $get() übergeben werden. Zusätzlich kann mit dem Argument filter noch ein dplyr::filter Ausdruck übergeben werden.

## Daten für eine Station und ein Jahr
store$get(site = "Zch_Stampfenbachstrasse", interval = "min30", year = 2011)
#> # A tibble: 243,381 x 6
#>    starttime           site                  parameter interval unit  value
#>    <dttm>              <fct>                 <fct>     <fct>    <fct> <dbl>
#>  1 2011-01-01 00:00:00 Zch_Stampfenbachstra~ SO2       min30    ppb    1.90
#>  2 2011-01-01 00:00:00 Zch_Stampfenbachstra~ PM10      min30    µg/m3 84.0 
#>  3 2011-01-01 00:00:00 Zch_Stampfenbachstra~ O3        min30    ppb    1.10
#>  4 2011-01-01 00:00:00 Zch_Stampfenbachstra~ NO        min30    ppb   21.0 
#>  5 2011-01-01 00:00:00 Zch_Stampfenbachstra~ NOx       min30    ppb   43.0 
#>  6 2011-01-01 00:00:00 Zch_Stampfenbachstra~ NO2       min30    ppb   22.0 
#>  7 2011-01-01 00:00:00 Zch_Stampfenbachstra~ WVv       min30    m/s    1.17
#>  8 2011-01-01 00:00:00 Zch_Stampfenbachstra~ WD        min30    °     27.9 
#>  9 2011-01-01 00:00:00 Zch_Stampfenbachstra~ T         min30    °C     1.59
#> 10 2011-01-01 00:00:00 Zch_Stampfenbachstra~ Hr        min30    %Hr   91.9 
#> # ... with 243,371 more rows

## Daten für mehrere Stationen und Jahre
store$get(site = c("Zch_Stampfenbachstrasse", "Zch_Rosengartenstrasse"), interval = "min30", year = 2014:2016)
#> # A tibble: 1,270,569 x 6
#>    starttime           site               parameter interval unit     value
#>    <dttm>              <fct>              <fct>     <fct>    <fct>    <dbl>
#>  1 2014-01-01 00:00:00 Zch_Rosengartenst~ PM10      min30    µg/m3  298.   
#>  2 2014-01-01 00:00:00 Zch_Rosengartenst~ O3        min30    ppb      0.776
#>  3 2014-01-01 00:00:00 Zch_Rosengartenst~ NO        min30    ppb     42.8  
#>  4 2014-01-01 00:00:00 Zch_Rosengartenst~ NOx       min30    ppb     61.4  
#>  5 2014-01-01 00:00:00 Zch_Rosengartenst~ NO2       min30    ppb     18.6  
#>  6 2014-01-01 00:00:00 Zch_Rosengartenst~ T         min30    °C      -2.18 
#>  7 2014-01-01 00:00:00 Zch_Rosengartenst~ Hr        min30    %Hr     92.7  
#>  8 2014-01-01 00:00:00 Zch_Rosengartenst~ RainDur   min30    min      0    
#>  9 2014-01-01 00:00:00 Zch_Rosengartenst~ p         min30    hPa    966.   
#> 10 2014-01-01 00:30:00 Zch_Rosengartenst~ PM10      min30    µg/m3  557.   
#> # ... with 1,270,559 more rows

## Argumente als Variablen, nur Stickstoff Parameter
sites <- c("Zch_Stampfenbachstrasse", "Zch_Rosengartenstrasse")
years <- 2014:2016
interval <- "min30"
store$get(interval = interval, year = years, site = sites, filter = parameter %in% c("NOx", "NO", "NO2"))
#> # A tibble: 312,507 x 6
#>    starttime           site                  parameter interval unit  value
#>    <dttm>              <fct>                 <fct>     <fct>    <fct> <dbl>
#>  1 2014-01-01 00:00:00 Zch_Rosengartenstras~ NO        min30    ppb    42.8
#>  2 2014-01-01 00:00:00 Zch_Rosengartenstras~ NOx       min30    ppb    61.4
#>  3 2014-01-01 00:00:00 Zch_Rosengartenstras~ NO2       min30    ppb    18.6
#>  4 2014-01-01 00:30:00 Zch_Rosengartenstras~ NO        min30    ppb    55.9
#>  5 2014-01-01 00:30:00 Zch_Rosengartenstras~ NOx       min30    ppb    77.2
#>  6 2014-01-01 00:30:00 Zch_Rosengartenstras~ NO2       min30    ppb    21.3
#>  7 2014-01-01 01:00:00 Zch_Rosengartenstras~ NO        min30    ppb    88.1
#>  8 2014-01-01 01:00:00 Zch_Rosengartenstras~ NOx       min30    ppb   116. 
#>  9 2014-01-01 01:00:00 Zch_Rosengartenstras~ NO2       min30    ppb    28.2
#> 10 2014-01-01 01:30:00 Zch_Rosengartenstras~ NO        min30    ppb   105. 
#> # ... with 312,497 more rows

## Nur die Ozon Daten an einer Station und grösser 60
store$get(year = 2011, site = "Zch_Stampfenbachstrasse", interval = "min30",
          filter = parameter == "O3" & value > 60)
#> # A tibble: 246 x 6
#>    starttime           site                  parameter interval unit  value
#>    <dttm>              <fct>                 <fct>     <fct>    <fct> <dbl>
#>  1 2011-04-21 14:30:00 Zch_Stampfenbachstra~ O3        min30    ppb    61.0
#>  2 2011-04-21 15:00:00 Zch_Stampfenbachstra~ O3        min30    ppb    64.0
#>  3 2011-04-21 15:30:00 Zch_Stampfenbachstra~ O3        min30    ppb    63.4
#>  4 2011-04-21 16:00:00 Zch_Stampfenbachstra~ O3        min30    ppb    68.0
#>  5 2011-04-21 16:30:00 Zch_Stampfenbachstra~ O3        min30    ppb    67.6
#>  6 2011-04-21 17:00:00 Zch_Stampfenbachstra~ O3        min30    ppb    60.9
#>  7 2011-04-21 17:30:00 Zch_Stampfenbachstra~ O3        min30    ppb    65.1
#>  8 2011-04-21 18:00:00 Zch_Stampfenbachstra~ O3        min30    ppb    68.8
#>  9 2011-04-21 18:30:00 Zch_Stampfenbachstra~ O3        min30    ppb    65.2
#> 10 2011-04-21 19:00:00 Zch_Stampfenbachstra~ O3        min30    ppb    61.5
#> # ... with 236 more rows

Lokal arbeiten

Hat man sämtliche Daten bereits von Amazon S3 lokal gecached, kann zur Performance Steigerung oder wenn keine Netzwerkverbindung vorhanden ist, ein lokaler Storage verwendet werden um auf den Cache zuzugreifen:

local <- store$get_local_storage()

Der Zugriff erfolgt identisch über $get():

## Daten für eine Station und ein Jahr
local$get(site = "Zch_Stampfenbachstrasse", interval = "min30", year = 2011)
#> # A tibble: 243,381 x 6
#>    starttime           site                  parameter interval unit  value
#>    <dttm>              <fct>                 <fct>     <fct>    <fct> <dbl>
#>  1 2011-01-01 00:00:00 Zch_Stampfenbachstra~ SO2       min30    ppb    1.90
#>  2 2011-01-01 00:00:00 Zch_Stampfenbachstra~ PM10      min30    µg/m3 84.0 
#>  3 2011-01-01 00:00:00 Zch_Stampfenbachstra~ O3        min30    ppb    1.10
#>  4 2011-01-01 00:00:00 Zch_Stampfenbachstra~ NO        min30    ppb   21.0 
#>  5 2011-01-01 00:00:00 Zch_Stampfenbachstra~ NOx       min30    ppb   43.0 
#>  6 2011-01-01 00:00:00 Zch_Stampfenbachstra~ NO2       min30    ppb   22.0 
#>  7 2011-01-01 00:00:00 Zch_Stampfenbachstra~ WVv       min30    m/s    1.17
#>  8 2011-01-01 00:00:00 Zch_Stampfenbachstra~ WD        min30    °     27.9 
#>  9 2011-01-01 00:00:00 Zch_Stampfenbachstra~ T         min30    °C     1.59
#> 10 2011-01-01 00:00:00 Zch_Stampfenbachstra~ Hr        min30    %Hr   91.9 
#> # ... with 243,371 more rows

## Daten für mehrere Stationen und Jahre
local$get(site = c("Zch_Stampfenbachstrasse", "Zch_Rosengartenstrasse"), interval = "min30", year = 2014:2016)
#> # A tibble: 1,270,569 x 6
#>    starttime           site               parameter interval unit     value
#>    <dttm>              <fct>              <fct>     <fct>    <fct>    <dbl>
#>  1 2014-01-01 00:00:00 Zch_Rosengartenst~ PM10      min30    µg/m3  298.   
#>  2 2014-01-01 00:00:00 Zch_Rosengartenst~ O3        min30    ppb      0.776
#>  3 2014-01-01 00:00:00 Zch_Rosengartenst~ NO        min30    ppb     42.8  
#>  4 2014-01-01 00:00:00 Zch_Rosengartenst~ NOx       min30    ppb     61.4  
#>  5 2014-01-01 00:00:00 Zch_Rosengartenst~ NO2       min30    ppb     18.6  
#>  6 2014-01-01 00:00:00 Zch_Rosengartenst~ T         min30    °C      -2.18 
#>  7 2014-01-01 00:00:00 Zch_Rosengartenst~ Hr        min30    %Hr     92.7  
#>  8 2014-01-01 00:00:00 Zch_Rosengartenst~ RainDur   min30    min      0    
#>  9 2014-01-01 00:00:00 Zch_Rosengartenst~ p         min30    hPa    966.   
#> 10 2014-01-01 00:30:00 Zch_Rosengartenst~ PM10      min30    µg/m3  557.   
#> # ... with 1,270,559 more rows

## Argumente als Variablen, nur Stickstoff Parameter
local$get(interval = interval, year = years, site = sites, filter = parameter %in% c("NOx", "NO", "NO2"))
#> # A tibble: 312,507 x 6
#>    starttime           site                  parameter interval unit  value
#>    <dttm>              <fct>                 <fct>     <fct>    <fct> <dbl>
#>  1 2014-01-01 00:00:00 Zch_Rosengartenstras~ NO        min30    ppb    42.8
#>  2 2014-01-01 00:00:00 Zch_Rosengartenstras~ NOx       min30    ppb    61.4
#>  3 2014-01-01 00:00:00 Zch_Rosengartenstras~ NO2       min30    ppb    18.6
#>  4 2014-01-01 00:30:00 Zch_Rosengartenstras~ NO        min30    ppb    55.9
#>  5 2014-01-01 00:30:00 Zch_Rosengartenstras~ NOx       min30    ppb    77.2
#>  6 2014-01-01 00:30:00 Zch_Rosengartenstras~ NO2       min30    ppb    21.3
#>  7 2014-01-01 01:00:00 Zch_Rosengartenstras~ NO        min30    ppb    88.1
#>  8 2014-01-01 01:00:00 Zch_Rosengartenstras~ NOx       min30    ppb   116. 
#>  9 2014-01-01 01:00:00 Zch_Rosengartenstras~ NO2       min30    ppb    28.2
#> 10 2014-01-01 01:30:00 Zch_Rosengartenstras~ NO        min30    ppb   105. 
#> # ... with 312,497 more rows

## Nur die Ozon Daten an einer Station und grösser 60
local$get(year = 2011, site = "Zch_Stampfenbachstrasse", interval = "min30",
          filter = parameter == "O3" & value > 60)
#> # A tibble: 246 x 6
#>    starttime           site                  parameter interval unit  value
#>    <dttm>              <fct>                 <fct>     <fct>    <fct> <dbl>
#>  1 2011-04-21 14:30:00 Zch_Stampfenbachstra~ O3        min30    ppb    61.0
#>  2 2011-04-21 15:00:00 Zch_Stampfenbachstra~ O3        min30    ppb    64.0
#>  3 2011-04-21 15:30:00 Zch_Stampfenbachstra~ O3        min30    ppb    63.4
#>  4 2011-04-21 16:00:00 Zch_Stampfenbachstra~ O3        min30    ppb    68.0
#>  5 2011-04-21 16:30:00 Zch_Stampfenbachstra~ O3        min30    ppb    67.6
#>  6 2011-04-21 17:00:00 Zch_Stampfenbachstra~ O3        min30    ppb    60.9
#>  7 2011-04-21 17:30:00 Zch_Stampfenbachstra~ O3        min30    ppb    65.1
#>  8 2011-04-21 18:00:00 Zch_Stampfenbachstra~ O3        min30    ppb    68.8
#>  9 2011-04-21 18:30:00 Zch_Stampfenbachstra~ O3        min30    ppb    65.2
#> 10 2011-04-21 19:00:00 Zch_Stampfenbachstra~ O3        min30    ppb    61.5
#> # ... with 236 more rows

Um die Vorbereitung lokal zu arbeiten zu erleichtern existiert eine $download(...) Funktion. Mit Hilfe dieser könnte man den gesamten Storage hinunterladen. Für eine feinere Kontrolle werden die ... Argumente als Filter auf den Output von $list_chunks() angewendet:

store$download(site == "Zch_Rosengartenstrasse", year < 2014, interval == "min30")
#> list()

Nun sind die Daten für 2013 auch lokal verfügbar

local$get(site = "Zch_Rosengartenstrasse", year = 2013, interval = "min30")
#> # A tibble: 37,711 x 6
#>    starttime           site               parameter interval unit     value
#>    <dttm>              <fct>              <fct>     <fct>    <fct>    <dbl>
#>  1 2013-10-03 14:30:00 Zch_Rosengartenst~ PM10      min30    µg/m3    5.72 
#>  2 2013-10-03 14:30:00 Zch_Rosengartenst~ RainDur   min30    min      0.167
#>  3 2013-10-03 14:30:00 Zch_Rosengartenst~ p         min30    hPa    969.   
#>  4 2013-10-03 15:00:00 Zch_Rosengartenst~ PM10      min30    µg/m3   -5.24 
#>  5 2013-10-03 15:00:00 Zch_Rosengartenst~ O3        min30    ppb      6.29 
#>  6 2013-10-03 15:00:00 Zch_Rosengartenst~ NO        min30    ppb     45.9  
#>  7 2013-10-03 15:00:00 Zch_Rosengartenst~ NOx       min30    ppb     63.3  
#>  8 2013-10-03 15:00:00 Zch_Rosengartenst~ NO2       min30    ppb     17.4  
#>  9 2013-10-03 15:00:00 Zch_Rosengartenst~ RainDur   min30    min      0    
#> 10 2013-10-03 15:00:00 Zch_Rosengartenst~ p         min30    hPa    969.   
#> # ... with 37,701 more rows

Zusätzlich zu den Daten werden auch sämtliche Metadaten lokal gespeichert durch den Aufruf der $download(...) Funktion.

Metadaten

Die Metadaten werden in einem Key-Value Store abgelegt. Aktuell liegen noch keine Dokumentationen zu den Metadaten vor. Die Funktion $get_meta() ermöglicht den Zugriff. Wird ein String als Argument übergeben, wird nur der entsprechende Key zurück gegeben, wenn nicht, werden alle. Das Resultat ist immer eine Named List mit dem Key als Name:

store$get_meta("meta_ostluft")
#> $meta_ostluft
#> # A tibble: 974 x 28
#>     msID site  site_short site_long msKT  scDTV scDTVJahr scLKWProzent
#>    <int> <chr> <chr>      <chr>     <chr> <chr> <chr>            <int>
#>  1     1 Arb_~ ARBS       Arbon St~ TG    7900  <NA>                 3
#>  2     1 Arb_~ ARBS       Arbon St~ TG    7900  <NA>                 3
#>  3     1 Arb_~ ARBS       Arbon St~ TG    7900  <NA>                 3
#>  4     1 Arb_~ ARBS       Arbon St~ TG    7900  <NA>                 3
#>  5     1 Arb_~ ARBS       Arbon St~ TG    7900  <NA>                 3
#>  6     1 Arb_~ ARBS       Arbon St~ TG    7900  <NA>                 3
#>  7     1 Arb_~ ARBS       Arbon St~ TG    7900  <NA>                 3
#>  8     1 Arb_~ ARBS       Arbon St~ TG    7900  <NA>                 3
#>  9     1 Arb_~ ARBS       Arbon St~ TG    7900  <NA>                 3
#> 10     1 Arb_~ ARBS       Arbon St~ TG    7900  <NA>                 3
#> # ... with 964 more rows, and 20 more variables: scStrassenabstand <int>,
#> #   scEinwohner <int>, scEinwohnerJahr <chr>, scVerkehrslage <chr>,
#> #   scSiedlungsgroesse <chr>, scLagerelativSiedlung <chr>,
#> #   scIDBStandorttyp <chr>, scIDBStationstyp <chr>, scIDBBebauung <chr>,
#> #   scIDBVerkehr <chr>, x <int>, y <int>, masl <int>, spBisDatum <dttm>,
#> #   parameter <chr>, msmmBeginn <dttm>, msmmEnde <dttm>, source <chr>,
#> #   parameter_original <chr>, timezone_original <chr>
…
#> 23 1251185   RainSum
#> 24 1251185       WVv
#> 25 1251185       WVs
#> 26 1251185        WD
#> 27 1251185   WVs_max
#> 28 1251185    WD_max
#> 29 1251185 wcp_north
#> 30 1251185  wcp_east
#> 31 1251185      baro
#> 32 1251185    thygan
#> 33 1251185       ifs
#> 34 1251185      wind
#> 
#> $meta_meteoschweiz
#> # A tibble: 214 x 15
#>    site_short site  `LÃ¤nge` Breite      x      y  masl parameter_origi~
#>    <chr>      <chr> <chr>    <chr>   <dbl>  <dbl> <dbl> <chr>           
#>  1 TAE        Aado~ 8°54'    47°29' 2.71e6 1.26e6   539 tre200s0        
#>  2 TAE        Aado~ 8°54'    47°29' 2.71e6 1.26e6   539 ure200s0        
#>  3 TAE        Aado~ 8°54'    47°29' 2.71e6 1.26e6   539 prestas0        
#>  4 TAE        Aado~ 8°54'    47°29' 2.71e6 1.26e6   539 prestas0        
#>  5 TAE        Aado~ 8°54'    47°29' 2.71e6 1.26e6   539 fkl010z1        
#>  6 TAE        Aado~ 8°54'    47°29' 2.71e6 1.26e6   539 fkl010z0        
#>  7 TAE        Aado~ 8°54'    47°29' 2.71e6 1.26e6   539 dkl010z0        
#>  8 TAE        Aado~ 8°54'    47°29' 2.71e6 1.26e6   539 sre000z0        
#>  9 TAE        Aado~ 8°54'    47°29' 2.71e6 1.26e6   539 sre000z0        
#> 10 TAE        Aado~ 8°54'    47°29' 2.71e6 1.26e6   539 gre000z0        
#> # ... with 204 more rows, and 7 more variables: source <chr>, unit <chr>,
#> #   Beschreibung <chr>, timezone_original <chr>, site_long <lgl>,
#> #   interval <chr>, parameter <chr>
#> 
#> $meta_ostluft
#> # A tibble: 974 x 28
#>     msID site  site_short site_long msKT  scDTV scDTVJahr scLKWProzent
#>    <int> <chr> <chr>      <chr>     <chr> <chr> <chr>            <int>
#>  1     1 Arb_~ ARBS       Arbon St~ TG    7900  <NA>                 3
#>  2     1 Arb_~ ARBS       Arbon St~ TG    7900  <NA>                 3
#>  3     1 Arb_~ ARBS       Arbon St~ TG    7900  <NA>                 3
#>  4     1 Arb_~ ARBS       Arbon St~ TG    7900  <NA>                 3
#>  5     1 Arb_~ ARBS       Arbon St~ TG    7900  <NA>                 3
#>  6     1 Arb_~ ARBS       Arbon St~ TG    7900  <NA>                 3
#>  7     1 Arb_~ ARBS       Arbon St~ TG    7900  <NA>                 3
#>  8     1 Arb_~ ARBS       Arbon St~ TG    7900  <NA>                 3
#>  9     1 Arb_~ ARBS       Arbon St~ TG    7900  <NA>                 3
#> 10     1 Arb_~ ARBS       Arbon St~ TG    7900  <NA>                 3
#> # ... with 964 more rows, and 20 more variables: scStrassenabstand <int>,
#> #   scEinwohner <int>, scEinwohnerJahr <chr>, scVerkehrslage <chr>,
#> #   scSiedlungsgroesse <chr>, scLagerelativSiedlung <chr>,
#> #   scIDBStandorttyp <chr>, scIDBStationstyp <chr>, scIDBBebauung <chr>,
#> #   scIDBVerkehr <chr>, x <int>, y <int>, masl <int>, spBisDatum <dttm>,
#> #   parameter <chr>, msmmBeginn <dttm>, msmmEnde <dttm>, source <chr>,
#> #   parameter_original <chr>, timezone_original <chr>
#> 
#> $metadata
#> # A tibble: 1,198 x 12
#>    site  site_short site_long      x      y  masl parameter_origi~
#>    <fct> <fct>      <fct>      <dbl>  <dbl> <dbl> <fct>           
#>  1 Arb_~ ARBS       Arbon St~ 2.75e6 1.26e6   407 Hr              
#>  2 Arb_~ ARBS       Arbon St~ 2.75e6 1.26e6   407 NO              
#>  3 Arb_~ ARBS       Arbon St~ 2.75e6 1.26e6   407 NO2             
#>  4 Arb_~ ARBS       Arbon St~ 2.75e6 1.26e6   407 NOx             
#>  5 Arb_~ ARBS       Arbon St~ 2.75e6 1.26e6   407 O3              
#>  6 Arb_~ ARBS       Arbon St~ 2.75e6 1.26e6   407 Ox              
#>  7 Arb_~ ARBS       Arbon St~ 2.75e6 1.26e6   407 p               
#>  8 Arb_~ ARBS       Arbon St~ 2.75e6 1.26e6   407 PM10            
#>  9 Arb_~ ARBS       Arbon St~ 2.75e6 1.26e6   407 SO2             
#> 10 Arb_~ ARBS       Arbon St~ 2.75e6 1.26e6   407 StrGlo          
#> # ... with 1,188 more rows, and 5 more variables: parameter <fct>,
#> #   unit <fct>, interval <fct>, timezone_original <fct>, source <fct>
…
