Calculates stats described in a table — calculate_statstable • rOstluft
…
fn <- system.file("extdata", "Zch_Stampfenbachstrasse_min30_2017.csv",
                   package = "rOstluft.data", mustWork = TRUE)

data <- read_airmo_csv(fn)

# convert volume concentrations to mass concentrations
data <- calculate_mass_concentrations(data)

stats <- calculate_statstable(data, lrv_table)

# we are only interested in the m1 and y1 results
stats <- dplyr::bind_rows(stats$y1, stats$m1)
stats
#> # A tibble: 22 x 6
#>    starttime           site                    parameter    interval unit  value
#>    <dttm>              <fct>                   <fct>        <fct>    <fct> <dbl>
#>  1 2017-01-01 00:00:00 Zch_Stampfenbachstrasse NO2          y1       µg/m3 30.4 
#>  2 2017-01-01 00:00:00 Zch_Stampfenbachstrasse NO2_95%_min~ y1       µg/m3 68.8 
#>  3 2017-01-01 00:00:00 Zch_Stampfenbachstrasse PM10         y1       µg/m3 15.9 
#>  4 2017-01-01 00:00:00 Zch_Stampfenbachstrasse SO2          y1       µg/m3  1.05
#>  5 2017-01-01 00:00:00 Zch_Stampfenbachstrasse SO2_95%_min~ y1       µg/m3  2.17
#>  6 2017-01-01 00:00:00 Zch_Stampfenbachstrasse O3_nb_h1>120 y1       1     81   
#>  7 2017-01-01 00:00:00 Zch_Stampfenbachstrasse CO_nb_d1>8   y1       1      0   
#>  8 2017-01-01 00:00:00 Zch_Stampfenbachstrasse NO2_nb_d1>80 y1       1      1   
#>  9 2017-01-01 00:00:00 Zch_Stampfenbachstrasse PM10_nb_d1>~ y1       1      8   
#> 10 2017-01-01 00:00:00 Zch_Stampfenbachstrasse SO2_nb_d1>1~ y1       1      0   
#> # ... with 12 more rows
…
