Convert between volume and mass concentrations — convert_conc • rOstluft
…
parts_to_mass()

mass_to_parts()

purrr::partial()

    Examples

min30 <- system.file("extdata", "Zch_Stampfenbachstrasse_min30_2013_Jan.csv",
                     package = "rOstluft.data", mustWork = TRUE)

airmo_min30 <- read_airmo_csv(min30)
convert_conc(airmo_min30, "NO", "\u00b5g/m3", "ppb", method = "return")
#> # A tibble: 1,484 x 6
#>    starttime           site                    parameter interval unit  value
#>    <dttm>              <fct>                   <fct>     <fct>    <fct> <dbl>
#>  1 2013-01-01 00:00:00 Zch_Stampfenbachstrasse NO        min30    ppb    63.6
#>  2 2013-01-01 00:30:00 Zch_Stampfenbachstrasse NO        min30    ppb    65.6
#>  3 2013-01-01 01:00:00 Zch_Stampfenbachstrasse NO        min30    ppb    60.6
#>  4 2013-01-01 01:30:00 Zch_Stampfenbachstrasse NO        min30    ppb    65.1
#>  5 2013-01-01 02:00:00 Zch_Stampfenbachstrasse NO        min30    ppb    81.1
#>  6 2013-01-01 02:30:00 Zch_Stampfenbachstrasse NO        min30    ppb    49.3
#>  7 2013-01-01 03:00:00 Zch_Stampfenbachstrasse NO        min30    ppb    51.0
#>  8 2013-01-01 03:30:00 Zch_Stampfenbachstrasse NO        min30    ppb    48.9
#>  9 2013-01-01 04:00:00 Zch_Stampfenbachstrasse NO        min30    ppb    51.0
#> 10 2013-01-01 04:30:00 Zch_Stampfenbachstrasse NO        min30    ppb    56.7
#> # ... with 1,474 more rows
…
min30 <- system.file("extdata", "Zch_Stampfenbachstrasse_min30_2013_Jan.csv",
                     package = "rOstluft.data", mustWork = TRUE)

airmo_min30 <- read_airmo_csv(min30)
airmo_min30_parts <- dplyr::filter(airmo_min30, .data$unit == "ppb" | .data$unit == "ppm")
convert_conc_multiple(airmo_min30_parts, conversions, method = "return")
#> # A tibble: 7,424 x 6
#>    starttime           site                    parameter interval unit  value
#>    <dttm>              <fct>                   <fct>     <fct>    <fct> <dbl>
#>  1 2013-01-01 00:00:00 Zch_Stampfenbachstrasse CO        min30    mg/m3 0.782
#>  2 2013-01-01 00:30:00 Zch_Stampfenbachstrasse CO        min30    mg/m3 0.828
#>  3 2013-01-01 01:00:00 Zch_Stampfenbachstrasse CO        min30    mg/m3 0.771
#>  4 2013-01-01 01:30:00 Zch_Stampfenbachstrasse CO        min30    mg/m3 0.894
#>  5 2013-01-01 02:00:00 Zch_Stampfenbachstrasse CO        min30    mg/m3 0.966
#>  6 2013-01-01 02:30:00 Zch_Stampfenbachstrasse CO        min30    mg/m3 0.782
#>  7 2013-01-01 03:00:00 Zch_Stampfenbachstrasse CO        min30    mg/m3 0.774
#>  8 2013-01-01 03:30:00 Zch_Stampfenbachstrasse CO        min30    mg/m3 0.736
#>  9 2013-01-01 04:00:00 Zch_Stampfenbachstrasse CO        min30    mg/m3 0.749
#> 10 2013-01-01 04:30:00 Zch_Stampfenbachstrasse CO        min30    mg/m3 0.785
#> # ... with 7,414 more rows
…
