Imports directory into store — import_directory • rOstluft
…
rOstluft::import_directory(store, path, rOstluft::read_airmo_csv)
#> Importing 'C:/Users/vot/Documents/R/win-library/3.5/rOstluft.data/extdata/Zch_Rosengartenstrasse_2010-2014.csv' with size 3.88M. File 1 of 3
#> Read 'C:/Users/vot/Documents/R/win-library/3.5/rOstluft.data/extdata/Zch_Rosengartenstrasse_2010-2014.csv' in 1.35 seconds. Got 194182 data points
#> Put data into store example_rOstluft in 0.37 seconds
#> Importing 'C:/Users/vot/Documents/R/win-library/3.5/rOstluft.data/extdata/Zch_Schimmelstrasse_2010-2014.csv' with size 11.1M. File 2 of 3
#> Read 'C:/Users/vot/Documents/R/win-library/3.5/rOstluft.data/extdata/Zch_Schimmelstrasse_2010-2014.csv' in 4.31 seconds. Got 1131371 data points
#> Put data into store example_rOstluft in 1.98 seconds
#> Importing 'C:/Users/vot/Documents/R/win-library/3.5/rOstluft.data/extdata/Zch_Stampfenbachstrasse_2010-2014.csv' with size 11.7M. File 3 of 3
#> Read 'C:/Users/vot/Documents/R/win-library/3.5/rOstluft.data/extdata/Zch_Stampfenbachstrasse_2010-2014.csv' in 3.70 seconds. Got 1219644 data points
#> Put data into store example_rOstluft in 1.96 seconds
#> Finished import after 13.68 seconds

store$get_content()
#> # A tibble: 153 x 6
#>     year interval site                    parameter unit      n
#>    <dbl> <fct>    <fct>                   <fct>     <fct> <int>
#>  1  2014 min30    Zch_Stampfenbachstrasse CO        mg/m3 17452
#>  2  2014 min30    Zch_Stampfenbachstrasse Hr        %Hr   17334
#>  3  2014 min30    Zch_Stampfenbachstrasse NO        µg/m3 17434
#>  4  2014 min30    Zch_Stampfenbachstrasse NO2       µg/m3 17434
#>  5  2014 min30    Zch_Stampfenbachstrasse NOx       ppb   17434
#>  6  2014 min30    Zch_Stampfenbachstrasse O3        µg/m3 17381
#>  7  2014 min30    Zch_Stampfenbachstrasse p         hPa   17516
#>  8  2014 min30    Zch_Stampfenbachstrasse PM10      µg/m3 17107
#>  9  2014 min30    Zch_Stampfenbachstrasse RainDur   min   17513
#> 10  2014 min30    Zch_Stampfenbachstrasse SO2       µg/m3 17434
#> # ... with 143 more rows
…
