Transforms data based on an other meta table — meta_apply • rOstluft
…
fn <- system.file("extdata", "smn.txt", package = "rOstluft.data", mustWork = TRUE)
data <- read_smn(fn, na.rm = FALSE)
data <- dplyr::arrange(data, .data$starttime)
data
#> # A tibble: 60 x 6
#>    starttime           site  parameter interval unit  value
#>    <dttm>              <fct> <fct>     <fct>    <fct> <dbl>
#>  1 2018-01-01 00:50:00 CHU   dkl010z0  min10    NA    216  
#>  2 2018-01-01 00:50:00 CHU   fkl010z0  min10    NA      1.7
#>  3 2018-01-01 00:50:00 CHU   fkl010z1  min10    NA      3  
#>  4 2018-01-01 00:50:00 CHU   gre000z0  min10    NA      5  
#>  5 2018-01-01 00:50:00 CHU   hto000s0  min10    NA     NA  
#>  6 2018-01-01 00:50:00 CHU   prestas0  min10    NA    946. 
#>  7 2018-01-01 00:50:00 CHU   rre150z0  min10    NA      0  
#>  8 2018-01-01 00:50:00 CHU   sre000z0  min10    NA      0  
#>  9 2018-01-01 00:50:00 CHU   tre200s0  min10    NA      2.3
#> 10 2018-01-01 00:50:00 CHU   ure200s0  min10    NA     82.7
#> # ... with 50 more rows

# data contains no units, cryptic SwissMetNet parameter names and abbreviations for site.
# And the meta data for parameter rre150z0 is missing. Perfect!

# too lazy to update meta, add unit mapping based on SwissMetNet parameter names
# and we want to overwrite the mapping for dkl010z0 anyway => use replace
res <- meta_apply(data, meta, "parameter", "unit", "parameter_original", "unit",
         mode = "replace",replacements = list(rre150z0 = "unit1", dkl010z0 = "unit2"))
#> apply meta data$unit = meta[meta$parameter_original == data$parameter]$unit:
#>   missing keys in meta$parameter_original: rre150z0
#>   replacements used: dkl010z0, rre150z0
res
#> # A tibble: 60 x 6
#>    starttime           site  parameter interval unit  value
#>    <dttm>              <fct> <fct>     <fct>    <fct> <dbl>
#>  1 2018-01-01 00:50:00 CHU   dkl010z0  min10    unit2 216  
#>  2 2018-01-01 00:50:00 CHU   fkl010z0  min10    m/s     1.7
#>  3 2018-01-01 00:50:00 CHU   fkl010z1  min10    m/s     3  
#>  4 2018-01-01 00:50:00 CHU   gre000z0  min10    W/m2    5  
#>  5 2018-01-01 00:50:00 CHU   hto000s0  min10    cm     NA  
#>  6 2018-01-01 00:50:00 CHU   prestas0  min10    hPa   946. 
#>  7 2018-01-01 00:50:00 CHU   rre150z0  min10    unit1   0  
#>  8 2018-01-01 00:50:00 CHU   sre000z0  min10    min     0  
#>  9 2018-01-01 00:50:00 CHU   tre200s0  min10    °C      2.3
#> 10 2018-01-01 00:50:00 CHU   ure200s0  min10    %      82.7
#> # ... with 50 more rows

# rename the SwissMetNet Parameters, still no mapping for rre150z0, we aren't
# interested in the data and drop it
res2 <- meta_apply(res, meta, "parameter", "parameter",
         "parameter_original", "parameter", mode = "drop")
#> Warning: apply meta data$parameter = meta[meta$parameter_original == data$parameter]$parameter:
#>   missing keys in meta$parameter_original: rre150z0
#>   dropping missing prameters
res2
#> # A tibble: 54 x 6
#>    starttime           site  parameter interval unit  value
#>    <dttm>              <fct> <fct>     <fct>    <fct> <dbl>
#>  1 2018-01-01 00:50:00 CHU   WD        min10    unit2 216  
#>  2 2018-01-01 00:50:00 CHU   WVs       min10    m/s     1.7
#>  3 2018-01-01 00:50:00 CHU   WVs_max   min10    m/s     3  
#>  4 2018-01-01 00:50:00 CHU   StrGlo    min10    W/m2    5  
#>  5 2018-01-01 00:50:00 CHU   SnowDep   min10    cm     NA  
#>  6 2018-01-01 00:50:00 CHU   p         min10    hPa   946. 
#>  7 2018-01-01 00:50:00 CHU   SunDur    min10    min     0  
#>  8 2018-01-01 00:50:00 CHU   T         min10    °C      2.3
#>  9 2018-01-01 00:50:00 CHU   Hr        min10    %      82.7
#> 10 2018-01-01 01:00:00 CHU   WD        min10    unit2 209  
#> # ... with 44 more rows

# or we keep it
res <- meta_apply(res, meta, "parameter", "parameter",
         "parameter_original", "parameter", mode = "keep")
#> Warning: apply meta data$parameter = meta[meta$parameter_original == data$parameter]$parameter:
#>   missing keys in meta$parameter_original: rre150z0
#>   keeping values: rre150z0
res
#> # A tibble: 60 x 6
#>    starttime           site  parameter interval unit  value
#>    <dttm>              <fct> <fct>     <fct>    <fct> <dbl>
#>  1 2018-01-01 00:50:00 CHU   WD        min10    unit2 216  
#>  2 2018-01-01 00:50:00 CHU   WVs       min10    m/s     1.7
#>  3 2018-01-01 00:50:00 CHU   WVs_max   min10    m/s     3  
#>  4 2018-01-01 00:50:00 CHU   StrGlo    min10    W/m2    5  
#>  5 2018-01-01 00:50:00 CHU   SnowDep   min10    cm     NA  
#>  6 2018-01-01 00:50:00 CHU   p         min10    hPa   946. 
#>  7 2018-01-01 00:50:00 CHU   rre150z0  min10    unit1   0  
#>  8 2018-01-01 00:50:00 CHU   SunDur    min10    min     0  
#>  9 2018-01-01 00:50:00 CHU   T         min10    °C      2.3
#> 10 2018-01-01 00:50:00 CHU   Hr        min10    %      82.7
#> # ... with 50 more rows

# rename the site abbreviation to the site name, strict should work
res <- meta_apply(res, meta, "site", "site", "site_short", "site")
res
#> # A tibble: 60 x 6
#>    starttime           site  parameter interval unit  value
#>    <dttm>              <fct> <fct>     <fct>    <fct> <dbl>
#>  1 2018-01-01 00:50:00 Chur  WD        min10    unit2 216  
#>  2 2018-01-01 00:50:00 Chur  WVs       min10    m/s     1.7
#>  3 2018-01-01 00:50:00 Chur  WVs_max   min10    m/s     3  
#>  4 2018-01-01 00:50:00 Chur  StrGlo    min10    W/m2    5  
#>  5 2018-01-01 00:50:00 Chur  SnowDep   min10    cm     NA  
#>  6 2018-01-01 00:50:00 Chur  p         min10    hPa   946. 
#>  7 2018-01-01 00:50:00 Chur  rre150z0  min10    unit1   0  
#>  8 2018-01-01 00:50:00 Chur  SunDur    min10    min     0  
#>  9 2018-01-01 00:50:00 Chur  T         min10    °C      2.3
#> 10 2018-01-01 00:50:00 Chur  Hr        min10    %      82.7
#> # ... with 50 more rows
…
