Quickly filter data — pluck_parameter • rOstluft
…
pluck_parameter(data, "ta1towb0")
#> # A tibble: 6 x 6
#>   starttime           site  parameter interval unit  value
#>   <dttm>              <fct> <fct>     <fct>    <fct> <dbl>
#> 1 2010-01-01 00:00:00 UEB   ta1towb0  h1       NA      3.7
#> 2 2010-01-01 01:00:00 UEB   ta1towb0  h1       NA      3.5
#> 3 2010-01-01 02:00:00 UEB   ta1towb0  h1       NA      3.2
#> 4 2010-01-01 03:00:00 UEB   ta1towb0  h1       NA      3.1
#> 5 2010-01-01 04:00:00 UEB   ta1towb0  h1       NA      3.3
#> 6 2010-01-01 05:00:00 UEB   ta1towb0  h1       NA      3.3

# strings or symbols
pluck_site(data, "KLO", "UEB")
#> # A tibble: 267 x 6
#>    starttime           site  parameter interval unit  value
#>    <dttm>              <fct> <fct>     <fct>    <fct> <dbl>
#>  1 2010-01-01 00:00:00 KLO   dkl010b0  h1       NA    319  
#>  2 2010-01-01 00:00:00 KLO   fkl010b0  h1       NA      1.5
#>  3 2010-01-01 00:00:00 KLO   gre000b0  h1       NA      0  
#>  4 2010-01-01 00:00:00 KLO   tre200b0  h1       NA      2.3
#>  5 2010-01-01 00:00:00 UEB   dk1towb0  h1       NA    249  
#>  6 2010-01-01 00:00:00 UEB   fk1towb0  h1       NA      1.7
#>  7 2010-01-01 00:00:00 UEB   ta1towb0  h1       NA      3.7
#>  8 2010-01-01 01:00:00 KLO   dkl010b0  h1       NA    317  
#>  9 2010-01-01 01:00:00 KLO   fkl010b0  h1       NA      1.7
#> 10 2010-01-01 01:00:00 KLO   gre000b0  h1       NA      0  
#> # ... with 257 more rows
…
# pluck_year supports vector
pluck_year(data, 2010:2012)
#> # A tibble: 42 x 6
#>    starttime           site  parameter interval unit  value
#>    <dttm>              <fct> <fct>     <fct>    <fct> <dbl>
#>  1 2010-01-01 00:00:00 KLO   dkl010b0  h1       NA    319  
#>  2 2010-01-01 00:00:00 KLO   fkl010b0  h1       NA      1.5
#>  3 2010-01-01 00:00:00 KLO   gre000b0  h1       NA      0  
#>  4 2010-01-01 00:00:00 KLO   tre200b0  h1       NA      2.3
#>  5 2010-01-01 00:00:00 UEB   dk1towb0  h1       NA    249  
#>  6 2010-01-01 00:00:00 UEB   fk1towb0  h1       NA      1.7
#>  7 2010-01-01 00:00:00 UEB   ta1towb0  h1       NA      3.7
#>  8 2010-01-01 01:00:00 KLO   dkl010b0  h1       NA    317  
#>  9 2010-01-01 01:00:00 KLO   fkl010b0  h1       NA      1.7
#> 10 2010-01-01 01:00:00 KLO   gre000b0  h1       NA      0  
#> # ... with 32 more rows
…
