Local storage — r6_storage_local • rOstluft
…
    Examples

## init store, creates directory if necessary
format <- rOstluft::format_rolf()
store <- rOstluft::storage_local_rds("example_rOstluft", format, read.only = FALSE)
#> Local store example_rOstluft initialized under 'C:\Users\tom\AppData\Local/rOstluft/example_rOstluft'

## read data from airmo export und put into the store
fn <- system.file("extdata", "Zch_Stampfenbachstrasse_2010-2014.csv",
                  package = "rOstluft.data", mustWork = TRUE)
df <- rOstluft::read_airmo_csv(fn)
store$put(df)
#> First put to storage. Save columns types to C:/Users/tom/AppData/Local/rOstluft/example_rOstluft/columns.rds
#> # A tibble: 70 × 6
#>     year interval site                    parameter unit      n
#>    <dbl> <fct>    <fct>                   <fct>     <fct> <int>
#>  1  2010 min30    Zch_Stampfenbachstrasse CO        mg/m3 17290
#>  2  2010 min30    Zch_Stampfenbachstrasse NO        µg/m3 17322
#>  3  2010 min30    Zch_Stampfenbachstrasse NO2       µg/m3 17322
#>  4  2010 min30    Zch_Stampfenbachstrasse NOx       ppb   17322
#>  5  2010 min30    Zch_Stampfenbachstrasse O3        µg/m3 17227
#>  6  2010 min30    Zch_Stampfenbachstrasse PM10      µg/m3 16840
#>  7  2010 min30    Zch_Stampfenbachstrasse SO2       µg/m3 17188
#>  8  2010 min30    Zch_Stampfenbachstrasse Hr        %Hr   17492
#>  9  2010 min30    Zch_Stampfenbachstrasse p         hPa   17461
#> 10  2010 min30    Zch_Stampfenbachstrasse RainDur   min   17502
#> # ℹ 60 more rows
…
## get all data min30 for 2011 and 2012
store$get(site = "Zch_Stampfenbachstrasse", interval = "min30", year = 2011:2012)
#> # A tibble: 488,322 × 6
#>    starttime           site                    parameter interval unit    value
#>    <dttm>              <fct>                   <fct>     <fct>    <fct>   <dbl>
#>  1 2011-01-01 00:00:00 Zch_Stampfenbachstrasse CO        min30    mg/m3   0.611
#>  2 2011-01-01 00:00:00 Zch_Stampfenbachstrasse NO        min30    µg/m3  26.2  
#>  3 2011-01-01 00:00:00 Zch_Stampfenbachstrasse NO2       min30    µg/m3  42.1  
#>  4 2011-01-01 00:00:00 Zch_Stampfenbachstrasse NOx       min30    ppb    43.0  
#>  5 2011-01-01 00:00:00 Zch_Stampfenbachstrasse O3        min30    µg/m3   2.19 
#>  6 2011-01-01 00:00:00 Zch_Stampfenbachstrasse PM10      min30    µg/m3  84.0  
#>  7 2011-01-01 00:00:00 Zch_Stampfenbachstrasse SO2       min30    µg/m3   5.07 
#>  8 2011-01-01 00:00:00 Zch_Stampfenbachstrasse Hr        min30    %Hr    91.9  
#>  9 2011-01-01 00:00:00 Zch_Stampfenbachstrasse p         min30    hPa   971.   
#> 10 2011-01-01 00:00:00 Zch_Stampfenbachstrasse RainDur   min30    min     0    
#> # ℹ 488,312 more rows

## get only data for O3
store$get(year = 2011:2012, site = "Zch_Stampfenbachstrasse", interval = "min30",
          filter = parameter == "O3")
#> # A tibble: 34,996 × 6
#>    starttime           site                    parameter interval unit  value
#>    <dttm>              <fct>                   <fct>     <fct>    <fct> <dbl>
#>  1 2011-01-01 00:00:00 Zch_Stampfenbachstrasse O3        min30    µg/m3  2.19
#>  2 2011-01-01 00:30:00 Zch_Stampfenbachstrasse O3        min30    µg/m3  2.10
#>  3 2011-01-01 01:00:00 Zch_Stampfenbachstrasse O3        min30    µg/m3  2.10
#>  4 2011-01-01 01:30:00 Zch_Stampfenbachstrasse O3        min30    µg/m3  2.00
#>  5 2011-01-01 02:00:00 Zch_Stampfenbachstrasse O3        min30    µg/m3  2.04
#>  6 2011-01-01 02:30:00 Zch_Stampfenbachstrasse O3        min30    µg/m3  2.09
#>  7 2011-01-01 03:00:00 Zch_Stampfenbachstrasse O3        min30    µg/m3  1.94
#>  8 2011-01-01 03:30:00 Zch_Stampfenbachstrasse O3        min30    µg/m3  2.04
#>  9 2011-01-01 04:00:00 Zch_Stampfenbachstrasse O3        min30    µg/m3  6.19
#> 10 2011-01-01 04:30:00 Zch_Stampfenbachstrasse O3        min30    µg/m3 37.3 
#> # ℹ 34,986 more rows

## get NOx data from multiple stations
store$get(site = c("Zch_Stampfenbachstrasse", "Zch_Rosengartenstrasse"), interval = "min30",
          year = 2014, filter = parameter %in% c("NOx", "NO", "NO2"))
#> # A tibble: 104,547 × 6
#>    starttime           site                   parameter interval unit  value
#>    <dttm>              <fct>                  <fct>     <fct>    <fct> <dbl>
#>  1 2014-01-01 00:00:00 Zch_Rosengartenstrasse NO        min30    µg/m3  53.3
#>  2 2014-01-01 00:00:00 Zch_Rosengartenstrasse NO2       min30    µg/m3  35.6
#>  3 2014-01-01 00:00:00 Zch_Rosengartenstrasse NOx       min30    ppb    61.4
#>  4 2014-01-01 00:30:00 Zch_Rosengartenstrasse NO        min30    µg/m3  69.7
#>  5 2014-01-01 00:30:00 Zch_Rosengartenstrasse NO2       min30    µg/m3  40.7
#>  6 2014-01-01 00:30:00 Zch_Rosengartenstrasse NOx       min30    ppb    77.2
#>  7 2014-01-01 01:00:00 Zch_Rosengartenstrasse NO        min30    µg/m3 110. 
#>  8 2014-01-01 01:00:00 Zch_Rosengartenstrasse NO2       min30    µg/m3  54.0
#>  9 2014-01-01 01:00:00 Zch_Rosengartenstrasse NOx       min30    ppb   116. 
#> 10 2014-01-01 01:30:00 Zch_Rosengartenstrasse NO        min30    µg/m3 131. 
#> # ℹ 104,537 more rows

## get n data points grouped by intervall, station, parameter, year in the store
store$get_content()
#> # A tibble: 88 × 6
#>     year interval site                   parameter unit      n
#>    <dbl> <fct>    <fct>                  <fct>     <fct> <int>
#>  1  2014 min30    Zch_Rosengartenstrasse NO        µg/m3 17415
#>  2  2014 min30    Zch_Rosengartenstrasse NO2       µg/m3 17415
#>  3  2014 min30    Zch_Rosengartenstrasse NOx       ppb   17415
#>  4  2014 min30    Zch_Rosengartenstrasse O3        µg/m3 17366
#>  5  2014 min30    Zch_Rosengartenstrasse PM10      µg/m3 16788
#>  6  2014 min30    Zch_Rosengartenstrasse Hr        %Hr   17517
#>  7  2014 min30    Zch_Rosengartenstrasse p         hPa   17519
#>  8  2014 min30    Zch_Rosengartenstrasse RainDur   min   17519
#>  9  2014 min30    Zch_Rosengartenstrasse T         °C    17517
#> 10  2013 min30    Zch_Rosengartenstrasse NO        µg/m3  4269
#> # ℹ 78 more rows
…
