Reads historic data files of the Tecson meteo station placed at Tiefenbrunnen and Mythenquai water police station. — read_seepolizei • rOstluft
…
# rename parameters to Ostluft Conventions
data <- meta_apply(
  data = data,
  meta = meta_data,
  data_src = "parameter",
  data_dest = "parameter",
  meta_key = "parameter_original",
  meta_val = "parameter",
  mode = "strict"
)

# show normalized data
data
#> # A tibble: 750 x 6
#>    starttime           site             parameter interval unit  value
#>    <dttm>              <fct>            <fct>     <fct>    <fct> <dbl>
#>  1 2007-04-15 10:20:00 ZH_Tiefenbrunnen T         min10    °C     17.4
#>  2 2007-04-15 10:30:00 ZH_Tiefenbrunnen T         min10    °C     16.7
#>  3 2007-04-15 10:40:00 ZH_Tiefenbrunnen T         min10    °C     17  
#>  4 2007-04-15 10:50:00 ZH_Tiefenbrunnen T         min10    °C     17  
#>  5 2007-04-15 11:00:00 ZH_Tiefenbrunnen T         min10    °C     16.8
#>  6 2007-04-15 11:10:00 ZH_Tiefenbrunnen T         min10    °C     16.6
#>  7 2007-04-15 11:20:00 ZH_Tiefenbrunnen T         min10    °C     17  
#>  8 2007-04-15 11:30:00 ZH_Tiefenbrunnen T         min10    °C     17.3
#>  9 2007-04-15 11:40:00 ZH_Tiefenbrunnen T         min10    °C     17.3
#> 10 2007-04-15 11:50:00 ZH_Tiefenbrunnen T         min10    °C     17.6
#> # ... with 740 more rows
…
