Resampling data — resample • rOstluft
…
airmo_min30 <- read_airmo_csv(min30)

# filter volume concenctrations, only use mass concentrations
airmo_min30 <- dplyr::filter(airmo_min30, !(.data$unit == "ppb" | .data$unit == "ppm"))

d1_statistics <- list(
  "default_statistic" = "drop",
  "Hr" = "mean",
  "RainDur" = "sum",
  "O3" = list("mean", "max", "min", "n")
)
resample(airmo_min30, d1_statistics, "d1", data_thresh = 0.8)
#> # A tibble: 186 x 6
#>    starttime           site                    parameter interval unit  value
#>    <dttm>              <fct>                   <fct>     <fct>    <fct> <dbl>
#>  1 2013-01-01 00:00:00 Zch_Stampfenbachstrasse Hr        d1       %Hr    76.0
#>  2 2013-01-02 00:00:00 Zch_Stampfenbachstrasse Hr        d1       %Hr    83.5
#>  3 2013-01-03 00:00:00 Zch_Stampfenbachstrasse Hr        d1       %Hr    78.0
#>  4 2013-01-04 00:00:00 Zch_Stampfenbachstrasse Hr        d1       %Hr    83.5
#>  5 2013-01-05 00:00:00 Zch_Stampfenbachstrasse Hr        d1       %Hr    83.8
#>  6 2013-01-06 00:00:00 Zch_Stampfenbachstrasse Hr        d1       %Hr    82.3
#>  7 2013-01-07 00:00:00 Zch_Stampfenbachstrasse Hr        d1       %Hr    84.9
#>  8 2013-01-08 00:00:00 Zch_Stampfenbachstrasse Hr        d1       %Hr    79.0
#>  9 2013-01-09 00:00:00 Zch_Stampfenbachstrasse Hr        d1       %Hr    89.4
#> 10 2013-01-10 00:00:00 Zch_Stampfenbachstrasse Hr        d1       %Hr    89.6
#> # ... with 176 more rows

# Note: wind parameters don't support multiple methods via list!
h1_statistics <- list(
  "default_statistic" = "drop",
  "WD" = "wind.direction",
  "WVs" = "wind.speed_scalar",
  "WVv" = "wind.speed_vector",
  "RainDur" = "sum",
  "NO" = list("coverage", "mean")
)
resample(airmo_min30, h1_statistics, "h1", data_thresh = 0.8)
#> # A tibble: 4,464 x 6
#>    starttime           site                    parameter    interval unit  value
#>    <dttm>              <fct>                   <fct>        <fct>    <fct> <dbl>
#>  1 2013-01-01 00:00:00 Zch_Stampfenbachstrasse NO_valid%_m~ h1       %       100
#>  2 2013-01-01 01:00:00 Zch_Stampfenbachstrasse NO_valid%_m~ h1       %       100
#>  3 2013-01-01 02:00:00 Zch_Stampfenbachstrasse NO_valid%_m~ h1       %       100
#>  4 2013-01-01 03:00:00 Zch_Stampfenbachstrasse NO_valid%_m~ h1       %       100
#>  5 2013-01-01 04:00:00 Zch_Stampfenbachstrasse NO_valid%_m~ h1       %       100
#>  6 2013-01-01 05:00:00 Zch_Stampfenbachstrasse NO_valid%_m~ h1       %       100
#>  7 2013-01-01 06:00:00 Zch_Stampfenbachstrasse NO_valid%_m~ h1       %       100
#>  8 2013-01-01 07:00:00 Zch_Stampfenbachstrasse NO_valid%_m~ h1       %       100
#>  9 2013-01-01 08:00:00 Zch_Stampfenbachstrasse NO_valid%_m~ h1       %       100
#> 10 2013-01-01 09:00:00 Zch_Stampfenbachstrasse NO_valid%_m~ h1       %       100
#> # ... with 4,454 more rows
…
