Transform between Coordinate Reference Systems — transform_crs • rOstluft
…
epsg.io: Coordinate Systems Worldwide

Working with projections in Leaflet

Tiles à la Google Maps

    Examples

fn <- system.file("extdata", "meta_smn.rds", package = "rOstluft.data")
data <- readRDS(fn)
data <- dplyr::distinct(data, site, x, y)
transform_crs(data, c(lon = "x", lat = "y"),
          sp::CRS("+init=epsg:2056"), sp::CRS("+init=epsg:4326"))
#> # A tibble: 22 x 5
#>    site                     x       y   lon   lat
#>    <chr>                <dbl>   <dbl> <dbl> <dbl>
#>  1 Aadorf/Tänikon     2710517 1259824  8.90  47.5
#>  2 Altenrhein         2760382 1261386  9.57  47.5
#>  3 BadRagaz           2756910 1209350  9.50  47.0
#>  4 Chur               2759465 1193152  9.53  46.9
#>  5 Ebnat-Kappel       2726347 1237176  9.11  47.3
#>  6 Glarus             2723755 1210567  9.07  47.0
#>  7 Hörnli             2713516 1247756  8.94  47.4
#>  8 Lägern             2672250 1259460  8.40  47.5
#>  9 Oberriet/Kriessern 2764170 1249582  9.61  47.4
#> 10 Pilatus            2661904 1203410  8.25  47.0
#> # ... with 12 more rows

transform_crs(data, c(lon = "x", lat = "y"),
          sp::CRS("+init=epsg:2056"), sp::CRS("+init=epsg:4326"), append = FALSE)
#> # A tibble: 22 x 3
#>    site                 lon   lat
#>    <chr>              <dbl> <dbl>
#>  1 Aadorf/Tänikon      8.90  47.5
#>  2 Altenrhein          9.57  47.5
#>  3 BadRagaz            9.50  47.0
#>  4 Chur                9.53  46.9
#>  5 Ebnat-Kappel        9.11  47.3
#>  6 Glarus              9.07  47.0
#>  7 Hörnli              8.94  47.4
#>  8 Lägern              8.40  47.5
#>  9 Oberriet/Kriessern  9.61  47.4
#> 10 Pilatus             8.25  47.0
#> # ... with 12 more rows

transform_LV95_to_WSG84(data)
#> # A tibble: 22 x 5
#>    site                     x       y   lon   lat
#>    <chr>                <dbl>   <dbl> <dbl> <dbl>
#>  1 Aadorf/Tänikon     2710517 1259824  8.90  47.5
#>  2 Altenrhein         2760382 1261386  9.57  47.5
#>  3 BadRagaz           2756910 1209350  9.50  47.0
#>  4 Chur               2759465 1193152  9.53  46.9
#>  5 Ebnat-Kappel       2726347 1237176  9.11  47.3
#>  6 Glarus             2723755 1210567  9.07  47.0
#>  7 Hörnli             2713516 1247756  8.94  47.4
#>  8 Lägern             2672250 1259460  8.40  47.5
#>  9 Oberriet/Kriessern 2764170 1249582  9.61  47.4
#> 10 Pilatus            2661904 1203410  8.25  47.0
#> # ... with 12 more rows
…
